TriggerSummaryStep1                     4   0     DEBUG  +++ HLT_mu20_ivar ID#267444585
TriggerSummaryStep1                     4   0     DEBUG  +++ HLT_mu6Comb ID#393364983
TriggerSummaryStep1                     4   0     DEBUG  +++ HLT_mu6nol1 ID#1250234908
TriggerSummaryStep1                     4   0     DEBUG  +++ HLT_mu6 ID#1672162766
TriggerSummaryStep1                     4   0     DEBUG  +++ HLT_mu6fast ID#2393852230
TriggerSummaryStep2                     4   0     DEBUG  +++ HLT_mu20_ivar ID#267444585
TriggerSummaryStep2                     4   0     DEBUG  +++ HLT_mu6Comb ID#393364983
TriggerSummaryStep2                     4   0     DEBUG  +++ HLT_mu6 ID#1672162766
TriggerSummaryStep3                     4   0     DEBUG  +++ HLT_mu20_ivar ID#267444585
TriggerSummaryStep1                     6   0     DEBUG  +++ HLT_mu6Comb ID#393364983
TriggerSummaryStep1                     6   0     DEBUG  +++ HLT_mu6nol1 ID#1250234908
TriggerSummaryStep1                     6   0     DEBUG  +++ HLT_mu6 ID#1672162766
TriggerSummaryStep1                     6   0     DEBUG  +++ HLT_mu6fast ID#2393852230
TriggerSummaryStep1                     6   0     DEBUG  +++ HLT_2mu6Comb ID#2762422737
TriggerSummaryStep1                     6   0     DEBUG  +++ HLT_2mu6 ID#3347104206
TriggerSummaryStep2                     6   0     DEBUG  +++ HLT_mu6Comb ID#393364983
TriggerSummaryStep2                     6   0     DEBUG  +++ HLT_mu6 ID#1672162766
TriggerSummaryStep2                     6   0     DEBUG  +++ HLT_2mu6Comb ID#2762422737
TriggerSummaryStep2                     6   0     DEBUG  +++ HLT_2mu6 ID#3347104206
TriggerSummaryStep3                     6   0     DEBUG  +++ HLT_mu6 ID#1672162766
TrigSignatureMoniMT                                INFO HLT_2mu6                      10        10        1         1         0         0         0         
TrigSignatureMoniMT                                INFO HLT_2mu6 decisions                                2         2         0         0         
TrigSignatureMoniMT                                INFO HLT_2mu6Comb                  10        10        1         1         0         0         1         
TrigSignatureMoniMT                                INFO HLT_2mu6Comb decisions                            2         2         0         0         
TrigSignatureMoniMT                                INFO HLT_mu20_ivar                 10        10        1         1         1         0         1         
TrigSignatureMoniMT                                INFO HLT_mu20_ivar decisions                           1         1         1         0         
TrigSignatureMoniMT                                INFO HLT_mu6                       10        10        2         2         1         0         0         
TrigSignatureMoniMT                                INFO HLT_mu6 decisions                                 3         3         4         0         
TrigSignatureMoniMT                                INFO HLT_mu6Comb                   10        10        2         2         0         0         2         
TrigSignatureMoniMT                                INFO HLT_mu6Comb decisions                             3         3         0         0         
TrigSignatureMoniMT                                INFO HLT_mu6fast                   10        10        2         0         0         0         2         
TrigSignatureMoniMT                                INFO HLT_mu6fast decisions                             3         0         0         0         
TrigSignatureMoniMT                                INFO HLT_mu6nol1                   10        10        2         0         0         0         0         
TrigSignatureMoniMT                                INFO HLT_mu6nol1 decisions                             5         0         0         0         
